{}
DTMC
Point found: {p0:0.1802959750784448;p1:1.0000000000010001e-05;p2:0.15932187756025623;p3:1.0000000000003062e-05}: 5745824047245739/9007199254740992 (approx. 0.6379146152697123)
This procedure took 0.05383777618408203s (from start: 0.06292510032653809s)
