digraph "DD" {
graph [dpi = 300];
center = true;
edge [dir = forward];
root [style=invis];
root -> 546 [style=solid dir=both arrowtail=none];
546 [label="14"];
520 [label="15"];
519 [label="16"];
518 [label="17"];
33554433 [shape=box, style=filled, label="0.000000"];
517 [label="18"];
516 [label="19"];
507 [label="20"];
506 [label="21"];
505 [label="22"];
504 [label="23"];
503 [label="24"];
502 [label="25"];
501 [label="26"];
500 [label="27"];
33554440 [label="28"];
50331667 [label="29"];
78 [shape=box, style=filled, label="0.600000"];
50331667 -> 78 [style=dashed];
50331667 -> 33554433 [style=solid dir=both arrowtail=none];
33554440 -> 50331667 [style=dashed];
33554440 -> 33554433 [style=solid dir=both arrowtail=none];
500 -> 33554440 [style=dashed];
500 -> 33554433 [style=solid dir=both arrowtail=none];
501 -> 500 [style=dashed];
501 -> 33554433 [style=solid dir=both arrowtail=none];
502 -> 501 [style=dashed];
502 -> 33554433 [style=solid dir=both arrowtail=none];
503 -> 502 [style=dashed];
503 -> 33554433 [style=solid dir=both arrowtail=none];
504 -> 503 [style=dashed];
504 -> 33554433 [style=solid dir=both arrowtail=none];
505 -> 504 [style=dashed];
505 -> 33554433 [style=solid dir=both arrowtail=none];
506 -> 33554433 [style=dashed];
506 -> 505 [style=solid dir=both arrowtail=none];
507 -> 506 [style=dashed];
507 -> 33554433 [style=solid dir=both arrowtail=none];
515 [label="20"];
514 [label="21"];
513 [label="22"];
512 [label="23"];
511 [label="24"];
510 [label="25"];
509 [label="26"];
508 [label="27"];
50331678 [label="28"];
116 [label="29"];
96 [shape=box, style=filled, label="0.400000"];
116 -> 96 [style=dashed];
116 -> 33554433 [style=solid dir=both arrowtail=none];
50331678 -> 116 [style=dashed];
50331678 -> 33554433 [style=solid dir=both arrowtail=none];
508 -> 50331678 [style=dashed];
508 -> 33554433 [style=solid dir=both arrowtail=none];
509 -> 508 [style=dashed];
509 -> 33554433 [style=solid dir=both arrowtail=none];
510 -> 509 [style=dashed];
510 -> 33554433 [style=solid dir=both arrowtail=none];
511 -> 510 [style=dashed];
511 -> 33554433 [style=solid dir=both arrowtail=none];
512 -> 511 [style=dashed];
512 -> 33554433 [style=solid dir=both arrowtail=none];
513 -> 512 [style=dashed];
513 -> 33554433 [style=solid dir=both arrowtail=none];
514 -> 513 [style=dashed];
514 -> 33554433 [style=solid dir=both arrowtail=none];
515 -> 514 [style=dashed];
515 -> 33554433 [style=solid dir=both arrowtail=none];
516 -> 507 [style=dashed];
516 -> 515 [style=solid dir=both arrowtail=none];
517 -> 516 [style=dashed];
517 -> 33554433 [style=solid dir=both arrowtail=none];
518 -> 33554433 [style=dashed];
518 -> 517 [style=solid dir=both arrowtail=none];
519 -> 518 [style=dashed];
519 -> 33554433 [style=solid dir=both arrowtail=none];
33554701 [label="16"];
33554700 [label="17"];
33554699 [label="18"];
33554698 [label="19"];
33554697 [label="20"];
33554696 [label="21"];
50331777 [label="22"];
50331776 [label="23"];
50331774 [label="24"];
33554692 [label="25"];
50331773 [label="26"];
33554691 [label="27"];
50331683 [label="28"];
155 [label="29"];
132 [shape=box, style=filled, label="0.700000"];
155 -> 132 [style=dashed];
155 -> 33554433 [style=solid dir=both arrowtail=none];
50331683 -> 155 [style=dashed];
50331683 -> 33554433 [style=solid dir=both arrowtail=none];
33554691 -> 50331683 [style=dashed];
33554691 -> 33554433 [style=solid dir=both arrowtail=none];
50331773 -> 33554691 [style=dashed];
50331773 -> 33554433 [style=solid dir=both arrowtail=none];
33554692 -> 33554433 [style=dashed];
33554692 -> 50331773 [style=solid dir=both arrowtail=none];
50331774 -> 33554692 [style=dashed];
50331774 -> 33554433 [style=solid dir=both arrowtail=none];
33554695 [label="24"];
33554694 [label="25"];
50331775 [label="26"];
33554693 [label="27"];
16777246 [label="28"];
33554468 [label="29"];
148 [shape=box, style=filled, label="0.300000"];
33554468 -> 148 [style=dashed];
33554468 -> 33554433 [style=solid dir=both arrowtail=none];
16777246 -> 33554468 [style=dashed];
16777246 -> 33554433 [style=solid dir=both arrowtail=none];
33554693 -> 16777246 [style=dashed];
33554693 -> 33554433 [style=solid dir=both arrowtail=none];
50331775 -> 33554693 [style=dashed];
50331775 -> 33554433 [style=solid dir=both arrowtail=none];
33554694 -> 50331775 [style=dashed];
33554694 -> 33554433 [style=solid dir=both arrowtail=none];
33554695 -> 33554694 [style=dashed];
33554695 -> 33554433 [style=solid dir=both arrowtail=none];
50331776 -> 50331774 [style=dashed];
50331776 -> 33554695 [style=solid dir=both arrowtail=none];
50331777 -> 50331776 [style=dashed];
50331777 -> 33554433 [style=solid dir=both arrowtail=none];
33554696 -> 33554433 [style=dashed];
33554696 -> 50331777 [style=solid dir=both arrowtail=none];
33554697 -> 33554433 [style=dashed];
33554697 -> 33554696 [style=solid dir=both arrowtail=none];
33554698 -> 33554697 [style=dashed];
33554698 -> 33554433 [style=solid dir=both arrowtail=none];
50331780 [label="19"];
50331779 [label="20"];
50331778 [label="21"];
50331778 -> 50331777 [style=dashed];
50331778 -> 33554433 [style=solid dir=both arrowtail=none];
50331779 -> 50331778 [style=dashed];
50331779 -> 33554433 [style=solid dir=both arrowtail=none];
50331780 -> 33554433 [style=dashed];
50331780 -> 50331779 [style=solid dir=both arrowtail=none];
33554699 -> 33554698 [style=dashed];
33554699 -> 50331780 [style=solid dir=both arrowtail=none];
33554700 -> 33554699 [style=dashed];
33554700 -> 33554433 [style=solid dir=both arrowtail=none];
33554701 -> 33554433 [style=dashed];
33554701 -> 33554700 [style=solid dir=both arrowtail=none];
520 -> 519 [style=dashed];
520 -> 33554701 [style=solid dir=both arrowtail=none];
33554720 [label="15"];
50331800 [label="16"];
16777367 [label="17"];
16777366 [label="18"];
16777365 [label="19"];
16777364 [label="20"];
16777363 [label="21"];
16777362 [label="22"];
16777357 [label="23"];
16777356 [label="24"];
16777355 [label="25"];
16777354 [label="26"];
50331695 [label="27"];
50331694 [label="28"];
214 [label="29"];
200 [shape=box, style=filled, label="0.950000"];
214 -> 33554433 [style=dashed];
214 -> 200 [style=solid dir=both arrowtail=none];
50331694 -> 214 [style=dashed];
50331694 -> 33554433 [style=solid dir=both arrowtail=none];
16777265 [label="28"];
33554486 [label="29"];
219 [shape=box, style=filled, label="0.050000"];
33554486 -> 219 [style=dashed];
33554486 -> 33554433 [style=solid dir=both arrowtail=none];
16777265 -> 33554486 [style=dashed];
16777265 -> 33554433 [style=solid dir=both arrowtail=none];
50331695 -> 50331694 [style=dashed];
50331695 -> 16777265 [style=solid dir=both arrowtail=none];
16777354 -> 50331695 [style=dashed];
16777354 -> 33554433 [style=solid dir=both arrowtail=none];
16777355 -> 33554433 [style=dashed];
16777355 -> 16777354 [style=solid dir=both arrowtail=none];
16777356 -> 33554433 [style=dashed];
16777356 -> 16777355 [style=solid dir=both arrowtail=none];
16777357 -> 16777356 [style=dashed];
16777357 -> 33554433 [style=solid dir=both arrowtail=none];
16777361 [label="23"];
16777360 [label="24"];
16777359 [label="25"];
16777358 [label="26"];
16777289 [label="27"];
16777288 [label="28"];
306 [label="29"];
302 [shape=box, style=filled, label="0.500000"];
306 -> 33554433 [style=dashed];
306 -> 302 [style=solid dir=both arrowtail=none];
16777288 -> 306 [style=dashed];
16777288 -> 33554433 [style=solid dir=both arrowtail=none];
33554580 [label="28"];
33554564 [label="29"];
33554564 -> 302 [style=dashed];
33554564 -> 33554433 [style=solid dir=both arrowtail=none];
33554580 -> 33554564 [style=dashed];
33554580 -> 33554433 [style=solid dir=both arrowtail=none];
16777289 -> 16777288 [style=dashed];
16777289 -> 33554580 [style=solid dir=both arrowtail=none];
16777358 -> 16777289 [style=dashed];
16777358 -> 33554433 [style=solid dir=both arrowtail=none];
16777359 -> 16777358 [style=dashed];
16777359 -> 33554433 [style=solid dir=both arrowtail=none];
16777360 -> 16777359 [style=dashed];
16777360 -> 33554433 [style=solid dir=both arrowtail=none];
16777361 -> 33554433 [style=dashed];
16777361 -> 16777360 [style=solid dir=both arrowtail=none];
16777362 -> 16777357 [style=dashed];
16777362 -> 16777361 [style=solid dir=both arrowtail=none];
16777363 -> 33554433 [style=dashed];
16777363 -> 16777362 [style=solid dir=both arrowtail=none];
16777364 -> 33554433 [style=dashed];
16777364 -> 16777363 [style=solid dir=both arrowtail=none];
16777365 -> 16777364 [style=dashed];
16777365 -> 33554433 [style=solid dir=both arrowtail=none];
50331788 [label="19"];
50331787 [label="20"];
50331786 [label="21"];
50331785 [label="22"];
50331784 [label="23"];
50331783 [label="24"];
50331782 [label="25"];
50331781 [label="26"];
33554616 [label="27"];
33554615 [label="28"];
50331668 [label="29"];
50331668 -> 33554433 [style=dashed];
50331668 -> 78 [style=solid dir=both arrowtail=none];
33554615 -> 50331668 [style=dashed];
33554615 -> 33554433 [style=solid dir=both arrowtail=none];
33554616 -> 33554615 [style=dashed];
33554616 -> 50331678 [style=solid dir=both arrowtail=none];
50331781 -> 33554616 [style=dashed];
50331781 -> 33554433 [style=solid dir=both arrowtail=none];
50331782 -> 33554433 [style=dashed];
50331782 -> 50331781 [style=solid dir=both arrowtail=none];
50331783 -> 33554433 [style=dashed];
50331783 -> 50331782 [style=solid dir=both arrowtail=none];
50331784 -> 50331783 [style=dashed];
50331784 -> 33554433 [style=solid dir=both arrowtail=none];
33554705 [label="23"];
33554704 [label="24"];
33554703 [label="25"];
33554702 [label="26"];
16777274 [label="27"];
16777273 [label="28"];
261 [label="29"];
261 -> 33554433 [style=dashed];
261 -> 219 [style=solid dir=both arrowtail=none];
16777273 -> 261 [style=dashed];
16777273 -> 33554433 [style=solid dir=both arrowtail=none];
33554554 [label="28"];
33554533 [label="29"];
33554533 -> 200 [style=dashed];
33554533 -> 33554433 [style=solid dir=both arrowtail=none];
33554554 -> 33554533 [style=dashed];
33554554 -> 33554433 [style=solid dir=both arrowtail=none];
16777274 -> 16777273 [style=dashed];
16777274 -> 33554554 [style=solid dir=both arrowtail=none];
33554702 -> 16777274 [style=dashed];
33554702 -> 33554433 [style=solid dir=both arrowtail=none];
33554703 -> 33554702 [style=dashed];
33554703 -> 33554433 [style=solid dir=both arrowtail=none];
33554704 -> 33554703 [style=dashed];
33554704 -> 33554433 [style=solid dir=both arrowtail=none];
33554705 -> 33554433 [style=dashed];
33554705 -> 33554704 [style=solid dir=both arrowtail=none];
50331785 -> 50331784 [style=dashed];
50331785 -> 33554705 [style=solid dir=both arrowtail=none];
50331786 -> 50331785 [style=dashed];
50331786 -> 33554433 [style=solid dir=both arrowtail=none];
50331787 -> 50331786 [style=dashed];
50331787 -> 33554433 [style=solid dir=both arrowtail=none];
50331788 -> 33554433 [style=dashed];
50331788 -> 50331787 [style=solid dir=both arrowtail=none];
16777366 -> 16777365 [style=dashed];
16777366 -> 50331788 [style=solid dir=both arrowtail=none];
16777367 -> 33554433 [style=dashed];
16777367 -> 16777366 [style=solid dir=both arrowtail=none];
50331799 [label="17"];
50331798 [label="18"];
50331797 [label="19"];
50331796 [label="20"];
33554718 [label="21"];
50331795 [label="22"];
50331794 [label="23"];
50331793 [label="24"];
50331792 [label="25"];
541 [label="26"];
50331791 [label="27"];
16777370 [label="28"];
50331658 [label="29"];
50331649 [shape=box, style=filled, label="1.000000"];
50331658 -> 33554433 [style=dashed];
50331658 -> 50331649 [style=solid dir=both arrowtail=none];
16777370 -> 33554433 [style=dashed];
16777370 -> 50331658 [style=solid dir=both arrowtail=none];
50331791 -> 16777370 [style=dashed];
50331791 -> 33554433 [style=solid dir=both arrowtail=none];
50331659 [label="27"];
16777222 [label="28"];
16777221 [label="29"];
16777221 -> 50331649 [style=dashed];
16777221 -> 33554433 [style=solid dir=both arrowtail=none];
16777222 -> 16777221 [style=dashed];
16777222 -> 33554433 [style=solid dir=both arrowtail=none];
50331659 -> 33554433 [style=dashed];
50331659 -> 16777222 [style=solid dir=both arrowtail=none];
541 -> 50331791 [style=dashed];
541 -> 50331659 [style=solid dir=both arrowtail=none];
50331792 -> 33554433 [style=dashed];
50331792 -> 541 [style=solid dir=both arrowtail=none];
50331793 -> 33554433 [style=dashed];
50331793 -> 50331792 [style=solid dir=both arrowtail=none];
50331794 -> 50331793 [style=dashed];
50331794 -> 33554433 [style=solid dir=both arrowtail=none];
543 [label="23"];
542 [label="24"];
33554717 [label="25"];
33554717 -> 541 [style=dashed];
33554717 -> 33554433 [style=solid dir=both arrowtail=none];
542 -> 33554717 [style=dashed];
542 -> 33554433 [style=solid dir=both arrowtail=none];
543 -> 33554433 [style=dashed];
543 -> 542 [style=solid dir=both arrowtail=none];
50331795 -> 50331794 [style=dashed];
50331795 -> 543 [style=solid dir=both arrowtail=none];
33554718 -> 33554433 [style=dashed];
33554718 -> 50331795 [style=solid dir=both arrowtail=none];
50331796 -> 33554433 [style=dashed];
50331796 -> 33554718 [style=solid dir=both arrowtail=none];
50331797 -> 50331796 [style=dashed];
50331797 -> 33554433 [style=solid dir=both arrowtail=none];
544 [label="19"];
16777372 [label="20"];
16777371 [label="21"];
16777371 -> 50331795 [style=dashed];
16777371 -> 33554433 [style=solid dir=both arrowtail=none];
16777372 -> 16777371 [style=dashed];
16777372 -> 33554433 [style=solid dir=both arrowtail=none];
544 -> 33554433 [style=dashed];
544 -> 16777372 [style=solid dir=both arrowtail=none];
50331798 -> 50331797 [style=dashed];
50331798 -> 544 [style=solid dir=both arrowtail=none];
50331799 -> 33554433 [style=dashed];
50331799 -> 50331798 [style=solid dir=both arrowtail=none];
50331800 -> 16777367 [style=dashed];
50331800 -> 50331799 [style=solid dir=both arrowtail=none];
33554720 -> 33554433 [style=dashed];
33554720 -> 50331800 [style=solid dir=both arrowtail=none];
546 -> 520 [style=dashed];
546 -> 33554720 [style=solid dir=both arrowtail=none];
}
digraph "DD" {
graph [dpi = 300];
center = true;
edge [dir = forward];
root [style=invis];
root -> 465 [style=solid dir=both arrowtail=dot];
465 [label="14"];
464 [label="16"];
459 [label="18"];
458 [label="20"];
457 [label="22"];
456 [label="24"];
446 [label="26"];
55 [label="28"];
0 [shape=box, style=filled, label="F"];
55 -> 0 [style=dashed];
55 -> 0 [style=solid dir=both arrowtail=dot];
446 -> 55 [style=dashed];
446 -> 0 [style=solid dir=both arrowtail=dot];
456 -> 446 [style=dashed];
456 -> 0 [style=solid dir=both arrowtail=dot];
457 -> 456 [style=dashed];
457 -> 0 [style=solid dir=both arrowtail=dot];
458 -> 457 [style=dashed];
458 -> 0 [style=solid dir=both arrowtail=dot];
459 -> 458 [style=dashed];
459 -> 0 [style=solid dir=both arrowtail=dot];
464 -> 459 [style=dashed];
464 -> 0 [style=solid dir=both arrowtail=dot];
465 -> 464 [style=dashed];
465 -> 0 [style=solid dir=both arrowtail=dot];
}
