digraph "DD" {
graph [dpi = 300];
center = true;
edge [dir = forward];
root [style=invis];
root -> 221 [style=solid dir=both arrowtail=none];
221 [label="6"];
206 [label="7"];
205 [label="8"];
204 [label="9"];
50331649 [shape=box, style=filled, label="0.000000"];
203 [label="10"];
202 [label="11"];
201 [label="12"];
200 [label="13"];
199 [label="14"];
198 [label="15"];
33554435 [label="16"];
16777223 [label="17"];
59 [shape=box, style=filled, label="0.600000"];
16777223 -> 59 [style=dashed];
16777223 -> 50331649 [style=solid dir=both arrowtail=none];
33554435 -> 16777223 [style=dashed];
33554435 -> 50331649 [style=solid dir=both arrowtail=none];
198 -> 33554435 [style=dashed];
198 -> 50331649 [style=solid dir=both arrowtail=none];
199 -> 198 [style=dashed];
199 -> 50331649 [style=solid dir=both arrowtail=none];
200 -> 50331649 [style=dashed];
200 -> 199 [style=solid dir=both arrowtail=none];
201 -> 200 [style=dashed];
201 -> 50331649 [style=solid dir=both arrowtail=none];
33554465 [label="12"];
33554464 [label="13"];
33554463 [label="14"];
33554462 [label="15"];
16777227 [label="16"];
33554439 [label="17"];
77 [shape=box, style=filled, label="0.400000"];
33554439 -> 77 [style=dashed];
33554439 -> 50331649 [style=solid dir=both arrowtail=none];
16777227 -> 33554439 [style=dashed];
16777227 -> 50331649 [style=solid dir=both arrowtail=none];
33554462 -> 16777227 [style=dashed];
33554462 -> 50331649 [style=solid dir=both arrowtail=none];
33554463 -> 33554462 [style=dashed];
33554463 -> 50331649 [style=solid dir=both arrowtail=none];
33554464 -> 33554463 [style=dashed];
33554464 -> 50331649 [style=solid dir=both arrowtail=none];
33554465 -> 33554464 [style=dashed];
33554465 -> 50331649 [style=solid dir=both arrowtail=none];
202 -> 201 [style=dashed];
202 -> 33554465 [style=solid dir=both arrowtail=none];
203 -> 202 [style=dashed];
203 -> 50331649 [style=solid dir=both arrowtail=none];
204 -> 50331649 [style=dashed];
204 -> 203 [style=solid dir=both arrowtail=none];
205 -> 204 [style=dashed];
205 -> 50331649 [style=solid dir=both arrowtail=none];
50331697 [label="8"];
50331696 [label="9"];
50331695 [label="10"];
50331694 [label="11"];
50331693 [label="12"];
50331692 [label="13"];
16777267 [label="14"];
33554448 [label="15"];
127 [label="16"];
106 [label="17"];
95 [shape=box, style=filled, label="0.700000"];
106 -> 50331649 [style=dashed];
106 -> 95 [style=solid dir=both arrowtail=none];
127 -> 106 [style=dashed];
127 -> 50331649 [style=solid dir=both arrowtail=none];
128 [label="16"];
33554446 [label="17"];
111 [shape=box, style=filled, label="0.300000"];
33554446 -> 111 [style=dashed];
33554446 -> 50331649 [style=solid dir=both arrowtail=none];
128 -> 33554446 [style=dashed];
128 -> 50331649 [style=solid dir=both arrowtail=none];
33554448 -> 127 [style=dashed];
33554448 -> 128 [style=solid dir=both arrowtail=none];
16777267 -> 33554448 [style=dashed];
16777267 -> 50331649 [style=solid dir=both arrowtail=none];
50331692 -> 50331649 [style=dashed];
50331692 -> 16777267 [style=solid dir=both arrowtail=none];
50331693 -> 50331649 [style=dashed];
50331693 -> 50331692 [style=solid dir=both arrowtail=none];
50331694 -> 50331693 [style=dashed];
50331694 -> 50331649 [style=solid dir=both arrowtail=none];
16777270 [label="11"];
16777269 [label="12"];
16777268 [label="13"];
16777268 -> 16777267 [style=dashed];
16777268 -> 50331649 [style=solid dir=both arrowtail=none];
16777269 -> 16777268 [style=dashed];
16777269 -> 50331649 [style=solid dir=both arrowtail=none];
16777270 -> 50331649 [style=dashed];
16777270 -> 16777269 [style=solid dir=both arrowtail=none];
50331695 -> 50331694 [style=dashed];
50331695 -> 16777270 [style=solid dir=both arrowtail=none];
50331696 -> 50331695 [style=dashed];
50331696 -> 50331649 [style=solid dir=both arrowtail=none];
50331697 -> 50331649 [style=dashed];
50331697 -> 50331696 [style=solid dir=both arrowtail=none];
206 -> 205 [style=dashed];
206 -> 50331697 [style=solid dir=both arrowtail=none];
50331701 [label="7"];
33554474 [label="8"];
33554473 [label="9"];
33554472 [label="10"];
33554471 [label="11"];
33554470 [label="12"];
50331699 [label="13"];
16777277 [label="14"];
33554469 [label="15"];
33554468 [label="16"];
33554433 [label="17"];
25 [shape=box, style=filled, label="1.000000"];
33554433 -> 50331649 [style=dashed];
33554433 -> 25 [style=solid dir=both arrowtail=none];
33554468 -> 50331649 [style=dashed];
33554468 -> 33554433 [style=solid dir=both arrowtail=none];
33554469 -> 33554468 [style=dashed];
33554469 -> 50331649 [style=solid dir=both arrowtail=none];
50331652 [label="15"];
16777221 [label="16"];
16777220 [label="17"];
16777220 -> 25 [style=dashed];
16777220 -> 50331649 [style=solid dir=both arrowtail=none];
16777221 -> 16777220 [style=dashed];
16777221 -> 50331649 [style=solid dir=both arrowtail=none];
50331652 -> 50331649 [style=dashed];
50331652 -> 16777221 [style=solid dir=both arrowtail=none];
16777277 -> 33554469 [style=dashed];
16777277 -> 50331652 [style=solid dir=both arrowtail=none];
50331699 -> 50331649 [style=dashed];
50331699 -> 16777277 [style=solid dir=both arrowtail=none];
33554470 -> 50331649 [style=dashed];
33554470 -> 50331699 [style=solid dir=both arrowtail=none];
33554471 -> 33554470 [style=dashed];
33554471 -> 50331649 [style=solid dir=both arrowtail=none];
50331700 [label="11"];
16777279 [label="12"];
16777278 [label="13"];
16777278 -> 16777277 [style=dashed];
16777278 -> 50331649 [style=solid dir=both arrowtail=none];
16777279 -> 16777278 [style=dashed];
16777279 -> 50331649 [style=solid dir=both arrowtail=none];
50331700 -> 50331649 [style=dashed];
50331700 -> 16777279 [style=solid dir=both arrowtail=none];
33554472 -> 33554471 [style=dashed];
33554472 -> 50331700 [style=solid dir=both arrowtail=none];
33554473 -> 33554472 [style=dashed];
33554473 -> 50331649 [style=solid dir=both arrowtail=none];
33554474 -> 33554473 [style=dashed];
33554474 -> 50331649 [style=solid dir=both arrowtail=none];
50331701 -> 50331649 [style=dashed];
50331701 -> 33554474 [style=solid dir=both arrowtail=none];
221 -> 206 [style=dashed];
221 -> 50331701 [style=solid dir=both arrowtail=none];
}
digraph "DD" {
graph [dpi = 300];
center = true;
edge [dir = forward];
root [style=invis];
root -> 177 [style=solid dir=both arrowtail=dot];
177 [label="6"];
176 [label="8"];
173 [label="10"];
172 [label="12"];
162 [label="14"];
32 [label="16"];
0 [shape=box, style=filled, label="F"];
32 -> 0 [style=dashed];
32 -> 0 [style=solid dir=both arrowtail=dot];
162 -> 32 [style=dashed];
162 -> 0 [style=solid dir=both arrowtail=dot];
172 -> 162 [style=dashed];
172 -> 0 [style=solid dir=both arrowtail=dot];
173 -> 172 [style=dashed];
173 -> 0 [style=solid dir=both arrowtail=dot];
176 -> 173 [style=dashed];
176 -> 0 [style=solid dir=both arrowtail=dot];
177 -> 176 [style=dashed];
177 -> 0 [style=solid dir=both arrowtail=dot];
}
